%YAML 1.1
%TAG !u! tag:unity3d.com,2011:
--- !u!1045 &1
EditorBuildSettings:
  m_ObjectHideFlags: 0
  serializedVersion: 2
  m_Scenes:
  - enabled: 1
    path: Assets/PEC/Scenes/Menu.unity
    guid: d72edfbe42f85504197e9672c3a7d919
  - enabled: 1
    path: Assets/PEC/Scenes/City.unity
    guid: 8886790982b423048b4173217e7109d9
  m_configObjects: {}
